{
  "type": "service_account",
  "project_id": "direct-link-354711",
  "private_key_id": "9fd8dcc767ae5e27555569250873b2141314187b",
  "private_key": "-----BEGIN PRIVATE KEY-----\nMIIEvQIBADANBgkqhkiG9w0BAQEFAASCBKcwggSjAgEAAoIBAQCTzYqJr0h50VF0\nFd3+2izLAZ5irtrudu/UHOWQPREsp6WXerRjhilSu0OE2LMDRnB1rL4iscE0Rmr/\ngcQo6+wp6mwi1EuqeUMpsUPIIvfw6yks3Qu4M1lWvmhMyY/EC8PIhsqdrgPQu5SX\nLVsIz3hQIrtvCxs0aVwOeSXlRN6GdDZR1e4EWKIkELWzg9pjaXHR9AO4svMVqOfU\nn9AB5tGVFjCiw90I9710N3JoF/BPQ7uOlOdlyUedcEZQ2mcImpTRDqiqZrl2bOqn\nAs3D82d0kWzw60aTorBoPMfvqXBKFdf4UtrgT3MxdrHRMUe7/hL0oBI03rd70mHJ\nvHENDj69AgMBAAECggEAANRZE0q9I/0TviYKEYF7jN9QDaSGxmqhqYjiYbvZM9ON\n1cEyvMUM+4ThIFOJaNqyJa1RgXPwuwosh/PCr3dOsDGIZ9QIx+BXiyb07W02ac8e\nc3A0itUaJECvTyo2bCNww6Uiz/dUPo1yJdZAU4ohvIYyLRf2Q1LWctJYbxmPpVhR\nbvpnd7Br09Q562wtAZtk6UEn/OVIDjLpRm6VF7BnMzhmtITAl49uclcp7mVrTt4e\nU5/l0uGoMbhPBtO3iiksVBqtCYH5KGQrzV3r/qdNiWe2c9tYh0jm6XSifRvibQbC\nEigzc01yY/zhZjxE7BRbpxz7pD3jt/S773LaW6hClQKBgQDLzw+xrFcnwjB8d8xt\npqFzQUUx2LZ4fmcBSk9qu9/VkeM4S8l53kpdHZZgKMQo8yh8dz1NC9TP+c9l0520\nzb/uBWTs31HZqnnkxr8s9gP1sDQVeVIUAlBtXr89lWxxnCkqem/t9Ry/0Lo7AM15\nltDc6T2u1NN+QWyeIUHh23m1lwKBgQC5pvEUU6DtVORvfVr4ymxQhg5sxnaYvh59\nnlHXGClyCv5m7NzwGqb30G1gOwvgN52vv6AYfI+hI3y4cU37HqfrF4b5Divv1H2J\nm7A8UJT3m66ZDfEvn3/I1/hb5ZorSZFuEqXPDn0cdFCWnI610eAjV12vyDfMDxFX\ngcmfrrbAywKBgCSjCzowNdai1N57FpebfahfUlX8lAijCFc2CYKxVTJqMENddFFh\nAVMtz2tnyKNn2p5NPQrNlqrwSDUQzmfDGL5r39Go72jGeXUDuTgW3W1cCHDXx0Zr\niBOxFYW3h7AAl3HYYqiPCGT+24thwI4b613a28jC32Xx0tm2NsaoEn/vAoGBAKDS\noRx+pXVyiMCb0uaaU+IdfvlzouEGMNuY/kRaRezo4SDAJ1RHgkRCZb1q6Qq+ovbQ\nBRuxK6rnVu9gF7FmCQh6RQ4S3LTRWj6Og8h79c/ZKRKlJT2f6c5OaHMTHs5I2JaF\nyOTpJDA2Amm2DVosCQIUeLABvXQjyV4IrGSLsPypAoGASY6xL9z7WFTCj4mqYauW\nDB2q/aWI1+Km0X+Hf10vikieFQqT5nb3SHe2//HmFLK0Ua5893CC82lL//vIU643\nrMhWpLsxqBUz8+l8oefq3E8L20JwNvRRUe0YZN+C7wLDhPIj+yokloka7Oq7D4sf\n+6sKgeOXQZEsmhNk6+c224U=\n-----END PRIVATE KEY-----\n",
  "client_email": "mfc-y9k8hh0sxix5ndywnaq2luptp5@direct-link-354711.iam.gserviceaccount.com",
  "client_id": "103987155291060264212",
  "auth_uri": "https://accounts.google.com/o/oauth2/auth",
  "token_uri": "https://oauth2.googleapis.com/token",
  "auth_provider_x509_cert_url": "https://www.googleapis.com/oauth2/v1/certs",
  "client_x509_cert_url": "https://www.googleapis.com/robot/v1/metadata/x509/mfc-y9k8hh0sxix5ndywnaq2luptp5%40direct-link-354711.iam.gserviceaccount.com"
}
